{
    "1": "I am not waring a bathing suit",
    "2": "I'm sorry women.",
    "3": "I'm ownwy thwee!",
    "4": "Guess what Manny did in the potty today? Guess! Guess!",
    "5": "I'm ownwy fiiive!",
    "6": "THERE'S MONKEYS IN THE WALLS! THERE'S MONKEYS IN THE WALLS!",
    "7": "Do Plants Sneeze?\nHypothesis: Plants probably sneeze.\nExperiment:\n- Feathers\n- Pepper\n- Feet\nConclusion: Plants don't sneeze.",
    "8": "I'm sorry I terrorized you children.",
    "9": "The upstairs bathroom is mine!",
    "10": "No Speech English.",
    "11": "Saludos, amigos. Gracias por parar a ayudarnos.",
    "12": "Your-pa dad-pa smells-pa like-pa a woman-pa!",
    "13": "Yo, I'm gonna take a Greg!",
    "14": "I crave pickles, but I can't eat them because they make me gassy!",
    "15": "Dear Lord, please let Mr Jefferson get hit on the head so he forgets about the money I owe him. And please let me get past the third level of Twisted Wizard without having to use any of my bonus health packs. Amen, and thank you in advance.",
    "16": "One two free four five. Five named Clive.",
    "17": "Bapple!",
    "18": "Zapple!",
    "19": "FLBBPT! FRBBRP! SBFTT! GLBRF!",
    "20": "Dear Aunt Loretta,\n\nThank you so much for the awesome pants!\nHow did you know I wanted that for Christmas?\n\nI love the way the pants look on my legs!\n\nAll my friends will be very jealous that I have my very own pants.\n\nThank you for making this the best Christmas ever!\n\n Sincerely, Greg",
    "21": "Tango Hamburgers!",
    "22": "PUSSSHHHH!",
    "23": "Ploopy!",
    "24": "Pootie!",
    "25": "You squishy slime stick!",
    "26": "I hear Greg Heffley has really strong muscles.",
    "27": "Fred picked up the buh... bah... bee... ",
    "28": "Wipe my heinie, ploopy!",
    "29": "Gregory's little friend is feeling: QUEASY",
    "30": "PRE-TEEN CLUB\nNo Grown-ups Allowed\nPre-teens RULE",
    "31": "Dad wasn't too happy that I turned somebody's driveway into an ice-skating rink yesterday.",
    "32": "I am deeply sorry, and now I do indeed admit that you exist, Sharif.",
    "33": "Hello, Mr. Kappler. Would you like to purchase some hardy Geranium Bulbs?",
    "34": "Step, step, step, no, no, no! Plop, plop, plop, in I go!",
    "35": "Mustard on my turnips, pleeaaase!",
    "36": "Our cafeteria has really **smelly** food.\nLOL.\nThe pizza is **purple** and the french fries are **slimy**.\nLOL.\nLOL.",
    "37": "Fuh fuh whoo zuff!",
    "38": "Before, I said that Polar bears are some useless animals, but now I can see that not every Polar bear is so useless after all.",
    "39": "Does this scab smell funny to you?",
    "40": "Knock knock! Thermos! Thermos be some way to tickle your funny bone!",
    "41": "Once upon a time a wabbit went up the hill and then he felled down.",
    "42": "You smell like asparagus!",
    "43": "Barry Palmer, you still owe Bryan five dollars, you BUM!",
    "44": "Dear Santa,\nI did not throw a crab apple at Mrs. Taylor's cat, even though it might've looked that way from a distance.\nSincerely,\nGreg Heffley",
    "45": "Diaper rash ahead!",
    "46": "August 20\n\nSell Greg",
    "47": "My name is Jeffrey Patrick Kinney and I am being held at gunpoint to produce more books in the Diary of a Wimpy Kid franchise."
  }